{
  "metadata": {
    "totals": {
      "currentPageTotals": {
        "count": 3,
        "offset": 0,
        "limit": 3
      },
      "globalTotals": {
        "count": 4,
        "totalPages": 2
      }
    },
  },
  "data": [
    {
      "id": 1,
      "name": "Item 1"
    },
    {
      "id": 2,
      "name": "Item 2"
    },
    {
      "id": 3,
      "name": "Item 3"
    },
    {
      "id": 3,
      "name": "Item 3"
    }
  ]
}