{
  "metadata": {
    "totals": {
      "currentPageTotals": {
        "count": 3,
        "offset": 0,
        "limit": 3
      },
      "globalTotals": {
        "count": 10,
        "totalPages": 4
      }
    }
  },
  "data": [
    {
      "id": 112055,
      "name": "profession0000000010"
    },
    {
      "id": 112054,
      "name": "profession0000000009"
    },
    {
      "id": 112053,
      "name": "profession0000000008"
    }
  ]
}